<?xml version="1.0" encoding="utf-8"?>
<COLLADA xmlns="http://www.collada.org/2005/11/COLLADASchema" version="1.4.1">
  <asset>
    <contributor>
      <author>Blender User</author>
      <authoring_tool>Blender 2.78.0 commit date:2017-02-08, commit time:13:50, hash:3c043732d3f</authoring_tool>
    </contributor>
    <created>2017-04-27T11:24:24</created>
    <modified>2017-04-27T11:24:24</modified>
    <unit name="meter" meter="1"/>
    <up_axis>Z_UP</up_axis>
  </asset>
  <library_images>
    <image id="fow_mask_png" name="fow_mask_png">
      <init_from>fow_mask.png</init_from>
    </image>
  </library_images>
  <library_effects>
    <effect id="fow_mat-effect">
      <profile_COMMON>
        <newparam sid="fow_mask_png-surface">
          <surface type="2D">
            <init_from>fow_mask_png</init_from>
          </surface>
        </newparam>
        <newparam sid="fow_mask_png-sampler">
          <sampler2D>
            <source>fow_mask_png-surface</source>
          </sampler2D>
        </newparam>
        <technique sid="common">
          <phong>
            <emission>
              <color sid="emission">0 0 0 1</color>
            </emission>
            <ambient>
              <color sid="ambient">0 0 0 1</color>
            </ambient>
            <diffuse>
              <texture texture="fow_mask_png-sampler" texcoord="UVMap"/>
            </diffuse>
            <specular>
              <color sid="specular">0.5 0.5 0.5 1</color>
            </specular>
            <shininess>
              <float sid="shininess">50</float>
            </shininess>
            <index_of_refraction>
              <float sid="index_of_refraction">1</float>
            </index_of_refraction>
          </phong>
        </technique>
      </profile_COMMON>
    </effect>
  </library_effects>
  <library_materials>
    <material id="fow_mat-material" name="fow_mat">
      <instance_effect url="#fow_mat-effect"/>
    </material>
  </library_materials>
  <library_geometries>
    <geometry id="fow_plane-mesh" name="fow_plane">
      <mesh>
        <source id="fow_plane-mesh-positions">
          <float_array id="fow_plane-mesh-positions-array" count="12">-1 -1 0 1 -1 0 -1 1 0 1 1 0</float_array>
          <technique_common>
            <accessor source="#fow_plane-mesh-positions-array" count="4" stride="3">
              <param name="X" type="float"/>
              <param name="Y" type="float"/>
              <param name="Z" type="float"/>
            </accessor>
          </technique_common>
        </source>
        <source id="fow_plane-mesh-normals">
          <float_array id="fow_plane-mesh-normals-array" count="3">0 0 1</float_array>
          <technique_common>
            <accessor source="#fow_plane-mesh-normals-array" count="1" stride="3">
              <param name="X" type="float"/>
              <param name="Y" type="float"/>
              <param name="Z" type="float"/>
            </accessor>
          </technique_common>
        </source>
        <source id="fow_plane-mesh-map">
          <float_array id="fow_plane-mesh-map-array" count="12">0.9999001 9.998e-5 9.998e-5 0.9999001 1.0004e-4 9.998e-5 0.9999001 9.998e-5 0.9999001 0.9999001 9.998e-5 0.9999001</float_array>
          <technique_common>
            <accessor source="#fow_plane-mesh-map-array" count="6" stride="2">
              <param name="S" type="float"/>
              <param name="T" type="float"/>
            </accessor>
          </technique_common>
        </source>
        <vertices id="fow_plane-mesh-vertices">
          <input semantic="POSITION" source="#fow_plane-mesh-positions"/>
        </vertices>
        <polylist material="fow_mat-material" count="2">
          <input semantic="VERTEX" source="#fow_plane-mesh-vertices" offset="0"/>
          <input semantic="NORMAL" source="#fow_plane-mesh-normals" offset="1"/>
          <input semantic="TEXCOORD" source="#fow_plane-mesh-map" offset="2" set="0"/>
          <vcount>3 3 </vcount>
          <p>1 0 0 2 0 1 0 0 2 1 0 3 3 0 4 2 0 5</p>
        </polylist>
      </mesh>
    </geometry>
  </library_geometries>
  <library_controllers/>
  <library_visual_scenes>
    <visual_scene id="Scene" name="Scene">
      <node id="fow_plane" name="fow_plane" type="NODE">
        <matrix sid="transform">5 0 0 5 0 5 0 5 0 0 1 0 0 0 0 1</matrix>
        <instance_geometry url="#fow_plane-mesh" name="fow_plane">
          <bind_material>
            <technique_common>
              <instance_material symbol="fow_mat-material" target="#fow_mat-material">
                <bind_vertex_input semantic="UVMap" input_semantic="TEXCOORD" input_set="0"/>
              </instance_material>
            </technique_common>
          </bind_material>
        </instance_geometry>
      </node>
    </visual_scene>
  </library_visual_scenes>
  <scene>
    <instance_visual_scene url="#Scene"/>
  </scene>
</COLLADA>