{
  "**": "rocket battery",

  // Unit
  "unit": {
    "name": "Rocket Battery",
    "camp": "reds",
    "weight": 30000.0,
    "armor": 50,
	"static": true
  },

  // Combat
  "combat": {
    "defenceRating": 4
  },

//  // UnitAI
//  "unitai": {
//    "movingBehavior": {
//      "type": "standard",
//      "targetLocateRadius": 8,
//      "targetPursuitTime": 10
//    }
//  },

  // Turret
  "turret0": {
    "type": "Turret",
    "typename": "gunbattery_reds_turret",
    "name": "Gunbattery's turret",
    "reloadTime": 1.0,
    "rotSpeed": 40.0,
	"returnSpeedCoeff": 1.5, // return faster
    "hostedWeapon": "rocketbattery_reds_launcher",  // @to linkedWeapon
    //"mpturret": "pos: (0, 0)"
    "ecs_tag": "main"
  },

  "weapons": [
    {
      "type": "Launcher",
      "typename": "rocketbattery_reds_launcher",
      "name": "maingun",
      //"caliber": 76,
      "fireRate": 8,
      "maxShells": 10,
      "maintanceCost": 100,
      "ammo": 10,
      "ammoCharge": 1,
      "ammotype": "rocket_ammo_reds",
      "attackDelay": 0.1,
      "realm": "ground",
      "ammotype":
      {
        "type": "Rocket", // Projectile ?
        "typename": "rocket_ammo_reds",
        "caliber": 76,
        "cost": 0,
        "moveSpeed": 80,
        "reliability": 0.9,
        "accuracy": 0.8,
        "weight": 9,
		"affectRadius": 1,
	    "attackRating": 6, // ракеты
		"radius": 30.0,
        "locateRadius": 30.0, // same as radius
		"projectileType": "rocket"
      }
    }
  ],

  "view": {
    "turret0": {
      "snd_fire": "fire.ogg",
      "snd_reload": "reload.ogg",
      //"parentNodeName": "body",
      "nodeName": "turret",
      "ecs_tag": "main"
    }
  }
}